…
\#This function is to generate data.frame of country name and Slug.

``` r
country_Name <- function(){
  country <- GET("https://api.covid19api.com/countries")
  countrylist <- fromJSON(rawToChar(country$content))
  countrylist1 <- as_tibble(data.frame(Country = countrylist$Country, Slug = countrylist$Slug))
  return(countrylist1)
}

countryName <- country_Name()
countryName
```

    ## # A tibble: 248 x 2
    ##    Country                   Slug                     
    ##    <chr>                     <chr>                    
    ##  1 Poland                    poland                   
    ##  2 Comoros                   comoros                  
    ##  3 Djibouti                  djibouti                 
    ##  4 Turks and Caicos Islands  turks-and-caicos-islands 
    ##  5 Bulgaria                  bulgaria                 
    ##  6 Honduras                  honduras                 
    ##  7 San Marino                san-marino               
    ##  8 Niue                      niue                     
    ##  9 Tuvalu                    tuvalu                   
    ## 10 US Minor Outlying Islands us-minor-outlying-islands
    ## # ... with 238 more rows
…
``` r
covid_summary_cases <- function(){
   full_url = paste0(base_url,"/summary")
   covid_summary_text <- content(GET(url=full_url),"text")
   covid_cases_summary_json <- fromJSON(covid_summary_text)
   covid_cases_summary1 <- data.frame(covid_cases_summary_json$Countries)  
   covid_cases_summary2 <- as_tibble(covid_cases_summary1)
   return(covid_cases_summary2)
}

covidSum <- covid_summary_cases()
covidSum
```

    ## # A tibble: 192 x 12
    ##    ID                                   Country             CountryCode Slug      NewConfirmed TotalConfirmed NewDeaths TotalDeaths NewRecovered TotalRecovered Date      Premium 
    ##    <chr>                                <chr>               <chr>       <chr>            <int>          <int>     <int>       <int>        <int>          <int> <chr>     <named >
    ##  1 15aa5e35-b345-4173-98ab-9b61888cdb04 Afghanistan         AF          afghanis~            0         155191         0        7206            0              0 2021-10-~ <NULL>  
    ##  2 26cb4723-635f-4a65-a900-d7aa5237799b Albania             AL          albania            549         171327         5        2710            0              0 2021-10-~ <NULL>  
    ##  3 2553b71f-393f-47cd-b2da-cdfd6b8ed9d0 Algeria             DZ          algeria            140         203657         4        5819            0              0 2021-10-~ <NULL>  
    ##  4 a6647cef-ac64-4516-91b5-905c37a9ac6b Andorra             AD          andorra              0          15222         0         130            0              0 2021-10-~ <NULL>  
    ##  5 9403ffd5-2fa0-4b0d-9fbf-ea5eaf635f5d Angola              AO          angola             527          58603         7        1574            0              0 2021-10-~ <NULL>  
    ##  6 c3991c09-522c-4452-be78-8df67e347a6d Antigua and Barbuda AG          antigua-~            0           3336         0          81            0              0 2021-10-~ <NULL>  
    ##  7 2e53a35b-e709-4f69-a764-d75de9201869 Argentina           AR          argentina          886        5259352        14      115239            0              0 2021-10-~ <NULL>  
    ##  8 3bc3f309-52ab-4473-aa39-26d1837adb15 Armenia             AM          armenia           1152         263783        15        5354            0              0 2021-10-~ <NULL>  
    ##  9 4aca024c-18c6-4916-9e29-0fb76675b6e2 Australia           AU          australia         2335         109516        10        1321            0              0 2021-10-~ <NULL>  
    ## 10 fe8adf3e-8876-48ee-8c4d-6e63da6d7d4d Austria             AT          austria           1416         746380         7       11021            0              0 2021-10-~ <NULL>  
    ## # ... with 182 more rows
…
  return(dataset1)
}




newCovidSummary <- newAddData_state(covidSum)
newCovidSummary
```

    ## # A tibble: 192 x 16
    ##    ID     Country  CountryCode Slug  NewConfirmed TotalConfirmed NewDeaths TotalDeaths NewRecovered TotalRecovered Date  Premium TotalDeathRate TotalDeathRateS~ Active RiskStatus
    ##    <chr>  <chr>    <chr>       <chr>        <int>          <int>     <int>       <int>        <int>          <int> <chr> <named>          <dbl> <chr>             <int> <chr>     
    ##  1 15aa5~ Afghani~ AF          afgh~            0         155191         0        7206            0              0 2021~ <NULL>           4.64  medium           1.48e5 Veryhigh  
    ##  2 26cb4~ Albania  AL          alba~          549         171327         5        2710            0              0 2021~ <NULL>           1.58  low              1.69e5 Veryhigh  
    ##  3 2553b~ Algeria  DZ          alge~          140         203657         4        5819            0              0 2021~ <NULL>           2.86  medium           1.98e5 Veryhigh  
    ##  4 a6647~ Andorra  AD          ando~            0          15222         0         130            0              0 2021~ <NULL>           0.854 low              1.51e4 mediumhigh
    ##  5 9403f~ Angola   AO          ango~          527          58603         7        1574            0              0 2021~ <NULL>           2.69  medium           5.70e4 high      
    ##  6 c3991~ Antigua~ AG          anti~            0           3336         0          81            0              0 2021~ <NULL>           2.43  medium           3.26e3 medium    
    ##  7 2e53a~ Argenti~ AR          arge~          886        5259352        14      115239            0              0 2021~ <NULL>           2.19  medium           5.14e6 Veryhigh  
    ##  8 3bc3f~ Armenia  AM          arme~         1152         263783        15        5354            0              0 2021~ <NULL>           2.03  medium           2.58e5 Veryhigh  
    ##  9 4aca0~ Austral~ AU          aust~         2335         109516        10        1321            0              0 2021~ <NULL>           1.21  low              1.08e5 Veryhigh  
    ## 10 fe8ad~ Austria  AT          aust~         1416         746380         7       11021            0              0 2021~ <NULL>           1.48  low              7.35e5 Veryhigh  
    ## # ... with 182 more rows
…
